{
    "emp 1": {
        "user": "emp 1",
        "user_id": "12",
        "device_id": "34",
        "team": "it",
        "group": "pd",
        "locations": "chennai",
        "zone": "a",
        "company": "retro",
        "priviledge": "user",
        "history_of_ids": [],
        "contact_event": [
            ],
        "heartbeat_event": {
            "2030-01-27": [
            ],
            "2020-01-17": [],
            "2033-01-31": []
        },
        "recent_contact_event": {
            "local": "12",
            "remote": "10",
            "start": 1595247300001,
            "duration": 300000,
            "avgDist": 16,
            "minDist": 838
        },
        "recent_heartbeat_event": {
            "local": "12",
            "tstamp": 1990730073,
            "battery": 5,
            "shutdown": true
        }
    }
    }
